block([%1,%2,%3,%4,%5,%6,%7,%8,%9,%10,%11,%12,%13,%14,%15,%16,%17&
&,%18,%19,%20,%21,%22,%23,%24,%25,%26,%27,%28,%29,%30,%31,%32,%33,&
&%34,%35,%36,%37,%38,%39,%40,%41,%42,%43,%44,%45,%46,%47,%48,%49,%&
&50,%51,%52,%53,%54,%55,%56,%57,%58,%59,%60,%61,%62,%63,%64,%65,%6&
&6,%67,%68,%69,%70,%71,%72,%73,%74,%75,%76,%77,%78,%79,%80,%81,%82&
&,%83,%84,%85,%86,%87,%88,%89,%90,%91,%92,%93,%94,%95,%96,%97,%98,&
&%99,%100,%101,%102,%103,%104,%105,%106,%107,%108,%109,%110,%111],&
&%1:-az,%2:bz+%1,%3:-ay,%4:cy+%3,%5:by+%3,%6:cz+%1,%7:%5*%6-%2*%4,&
&%8:-ax,%9:dx+%8,%10:cx+%8,%11:bx+%8,%12:%2*%10-%11*%6,%13:dy+%3,%&
&14:%11*%4-%5*%10,%15:dz+%1,%16:-bz,%17:cz+%16,%18:-cy,%19:%18+by,&
&%20:%19*%15+%17*%13-%5*%6+%2*%4,%21:-cz,%22:%21+bz,%23:-bx,%24:cx&
&+%23,%25:%24*%15+%22*%9+%11*%6-%2*%10,%26:-by,%27:cy+%26,%28:-cx,&
&%29:%28+bx,%30:%29*%13+%27*%9-%11*%4+%5*%10,%31:%21+az,%32:%4*%15&
&+%31*%13,%33:%28+ax,%34:%33*%15+%6*%9,%35:%18+ay,%36:%10*%13+%35*&
&%9,%37:%26+ay,%38:%37*%15+%2*%13,%39:%16+az,%40:%11*%15+%39*%9,%4&
&1:%23+ax,%42:%41*%13+%5*%9,%43:%25*%20*jjtCoef,%44:%30*%20*jjtCoe&
&f,%45:%20*%32*jjtCoef,%46:%34*%20*jjtCoef+(dz+%21)*hCoef,%47:-dy,&
&%48:%36*%20*jjtCoef+(%47+cy)*hCoef,%49:%38*%20*jjtCoef,%50:-dz,%5&
&1:%40*%20*jjtCoef+(%50+bz)*hCoef,%52:%42*%20*jjtCoef+(dy+%26)*hCo&
&ef,%53:%7*%20*jjtCoef,%54:%12*%20*jjtCoef+%17*hCoef,%55:%14*%20*j&
&jtCoef+%19*hCoef,%56:%30*%25*jjtCoef,%57:%25*%32*jjtCoef+(%50+cz)&
&*hCoef,%58:%34*%25*jjtCoef,%59:%36*%25*jjtCoef+(dx+%28)*hCoef,%60&
&:%38*%25*jjtCoef+(dz+%16)*hCoef,%61:%40*%25*jjtCoef,%62:-dx,%63:%&
&42*%25*jjtCoef+(%62+bx)*hCoef,%64:%7*%25*jjtCoef+%22*hCoef,%65:%1&
&2*%25*jjtCoef,%66:%14*%25*jjtCoef+%24*hCoef,%67:%30*%32*jjtCoef+(&
&dy+%18)*hCoef,%68:%30*%34*jjtCoef+(%62+cx)*hCoef,%69:%30*%36*jjtC&
&oef,%70:%30*%38*jjtCoef+(%47+by)*hCoef,%71:%30*%40*jjtCoef+(dx+%2&
&3)*hCoef,%72:%42*%30*jjtCoef,%73:%7*%30*jjtCoef+%27*hCoef,%74:%12&
&*%30*jjtCoef+%29*hCoef,%75:%14*%30*jjtCoef,%76:%34*%32*jjtCoef,%7&
&7:%36*%32*jjtCoef,%78:%38*%32*jjtCoef,%79:%40*%32*jjtCoef+%15*hCo&
&ef,%80:%42*%32*jjtCoef+(%47+ay)*hCoef,%81:%7*%32*jjtCoef,%82:%12*&
&%32*jjtCoef+%31*hCoef,%83:%14*%32*jjtCoef+%4*hCoef,%84:%36*%34*jj&
&tCoef,%85:%38*%34*jjtCoef+(%50+az)*hCoef,%86:%40*%34*jjtCoef,%87:&
&%42*%34*jjtCoef+%9*hCoef,%88:%7*%34*jjtCoef+%6*hCoef,%89:%12*%34*&
&jjtCoef,%90:%14*%34*jjtCoef+%33*hCoef,%91:%36*%38*jjtCoef+%13*hCo&
&ef,%92:%36*%40*jjtCoef+(%62+ax)*hCoef,%93:%42*%36*jjtCoef,%94:%7*&
&%36*jjtCoef+%35*hCoef,%95:%12*%36*jjtCoef+%10*hCoef,%96:%14*%36*j&
&jtCoef,%97:%40*%38*jjtCoef,%98:%42*%38*jjtCoef,%99:%7*%38*jjtCoef&
&,%100:%12*%38*jjtCoef+%2*hCoef,%101:%14*%38*jjtCoef+%37*hCoef,%10&
&2:%42*%40*jjtCoef,%103:%7*%40*jjtCoef+%39*hCoef,%104:%12*%40*jjtC&
&oef,%105:%14*%40*jjtCoef+%11*hCoef,%106:%7*%42*jjtCoef+%5*hCoef,%&
&107:%12*%42*jjtCoef+%41*hCoef,%108:%14*%42*jjtCoef,%109:%12*%7*jj&
&tCoef,%110:%14*%7*jjtCoef,%111:%14*%12*jjtCoef,[%14*%15+%12*%13+%&
&7*%9,%20,%25,%30,%32,%34,%36,%38,%40,%42,%7,%12,%14,%20**2*jjtCoe&
&f,%43,%44,%45,%46,%48,%49,%51,%52,%53,%54,%55,%43,%25**2*jjtCoef,&
&%56,%57,%58,%59,%60,%61,%63,%64,%65,%66,%44,%56,%30**2*jjtCoef,%6&
&7,%68,%69,%70,%71,%72,%73,%74,%75,%45,%57,%67,%32**2*jjtCoef,%76,&
&%77,%78,%79,%80,%81,%82,%83,%46,%58,%68,%76,%34**2*jjtCoef,%84,%8&
&5,%86,%87,%88,%89,%90,%48,%59,%69,%77,%84,%36**2*jjtCoef,%91,%92,&
&%93,%94,%95,%96,%49,%60,%70,%78,%85,%91,%38**2*jjtCoef,%97,%98,%9&
&9,%100,%101,%51,%61,%71,%79,%86,%92,%97,%40**2*jjtCoef,%102,%103,&
&%104,%105,%52,%63,%72,%80,%87,%93,%98,%102,%42**2*jjtCoef,%106,%1&
&07,%108,%53,%64,%73,%81,%88,%94,%99,%103,%106,%7**2*jjtCoef,%109,&
&%110,%54,%65,%74,%82,%89,%95,%100,%104,%107,%109,%12**2*jjtCoef,%&
&111,%55,%66,%75,%83,%90,%96,%101,%105,%108,%110,%111,%14**2*jjtCo&
&ef])
